{
	"meta" => 
	{
		"code"=>201
	}, 
	"data"=>
	{
		"tracking"=>
		{
			"id"=>"5496fc80a0c8d445357afd4f", 
			"created_at"=>"2014-12-21T16:59:44+00:00", 
			"updated_at"=>"2014-12-21T16:59:44+00:00", 
			"tracking_number"=>"1Z76676XA891472337", 
			"tracking_account_number"=>nil, 
			"tracking_postal_code"=>nil, 
			"tracking_ship_date"=>nil, 
			"slug"=>"ups", 
			"active"=>true, 
			"android"=>[], 
			"custom_fields"=>{}, 
			"customer_name"=>nil, 
			"delivery_time"=>0, 
			"destination_country_iso3"=>nil, 
			"emails"=>[], 
			"expected_delivery"=>nil, 
			"ios"=>[], 
			"note"=>nil, 
			"order_id"=>nil, 
			"order_id_path"=>nil, 
			"origin_country_iso3"=>nil, 
			"shipment_package_count"=>0, 
			"shipment_type"=>nil, 
			"shipment_weight"=>0, 
			"shipment_weight_unit"=>"", 
			"signed_by"=>nil, 
			"smses"=>[], 
			"source"=>"api", 
			"tag"=>"Pending", 
			"title"=>"1Z76676XA891472337", 
			"tracked_count"=>0, 
			"unique_token"=>"-kLcTUsIu", 
			"checkpoints"=>[]
		}
	}
}