{
    "meta": {
        "code": 200
    },
    "data": {
        "tracking": {
            "id": "53aa7ae6415a67000000001f",
            "tracking_number": "1Z76676XA891472337",
            "tracking_account_number": null,
            "tracking_postal_code": null,
            "tracking_ship_date": null,
            "slug": "ups"
        }
    }
}